tcpdump: listening on enp0s3, link-type EN10MB (Ethernet), capture size 262144 bytes
16:56:09.104479 08:00:27:98:7c:ea (oui Unknown) > 52:54:00:12:35:02 (oui Unknown), ethertype IPv4 (0x0800), length 74: (tos 0x10, ttl 64, id 19812, offs
    dagon.rad.net.53218 > 93.184.216.34.http: Flags [S], cksum 0x4218 (incorrect -> 0x0529), seq 750182919, win 29200, options [mss 1460,sackOK,TS val 9
E..<Md@.@..^
...].."...P,.........r.B..........
...c........
16:56:09.223731 52:54:00:12:35:02 (oui Unknown) > 08:00:27:98:7c:ea (oui Unknown), ethertype IPv4 (0x0800), length 60: (tos 0x0, ttl 64, id 247, offset
    93.184.216.34.http > dagon.rad.net.53218: Flags [S.], cksum 0x454e (correct), seq 32256001, ack 750182920, win 65535, options [mss 1460], length 0
E..,....@.7.].."
....P....0.,...`...EN........
16:56:09.223798 08:00:27:98:7c:ea (oui Unknown) > 52:54:00:12:35:02 (oui Unknown), ethertype IPv4 (0x0800), length 54: (tos 0x10, ttl 64, id 19813, offs
    dagon.rad.net.53218 > 93.184.216.34.http: Flags [.], cksum 0x4204 (incorrect -> 0xeafa), ack 1, win 29200, length 0
E..(Me@.@..q
...].."...P,.....0.P.r.B...
16:56:33.503555 08:00:27:98:7c:ea (oui Unknown) > 52:54:00:12:35:02 (oui Unknown), ethertype IPv4 (0x0800), length 61: (tos 0x10, ttl 64, id 19814, offs
    dagon.rad.net.53218 > 93.184.216.34.http: Flags [P.], cksum 0x420b (incorrect -> 0x1679), seq 1:8, ack 1, win 29200, length 7: HTTP, length: 7
        GET /
E../Mf@.@..i
...].."...P,.....0.P.r.B...GET /

16:56:33.503881 52:54:00:12:35:02 (oui Unknown) > 08:00:27:98:7c:ea (oui Unknown), ethertype IPv4 (0x0800), length 60: (tos 0x0, ttl 64, id 248, offset
    93.184.216.34.http > dagon.rad.net.53218: Flags [.], cksum 0x5d04 (correct), ack 8, win 65535, length 0
E..(....@.7.].."
....P....0.,...P...].........
16:56:33.626414 52:54:00:12:35:02 (oui Unknown) > 08:00:27:98:7c:ea (oui Unknown), ethertype IPv4 (0x0800), length 603: (tos 0x0, ttl 64, id 249, offset
    93.184.216.34.http > dagon.rad.net.53218: Flags [P.], cksum 0xa651 (correct), seq 1:550, ack 8, win 65535, length 549: HTTP, length: 549
        HTTP/1.0 505 HTTP Version Not Supported
        Content-Type: text/html
        Content-Length: 379
        Connection: close
        Date: Tue, 02 Feb 2021 13:56:34 GMT
        Server: ECSF (nyb/1D32)

        <?xml version="1.0" encoding="iso-8859-1"?>
        <!DOCTYPE html PUBLIC "-//W3C//DTD XHTML 1.0 Transitional//EN"
                 "http://www.w3.org/TR/xhtml1/DTD/xhtml1-transitional.dtd">
        <html xmlns="http://www.w3.org/1999/xhtml" xml:lang="en" lang="en">
                <head>
                        <title>505 - HTTP Version Not Supported</title>
                </head>
                <body>
                        <h1>505 - HTTP Version Not Supported</h1>
                </body>
        </html>
E..M....@.5.].."
....P....0.,...P....Q..HTTP/1.0 505 HTTP Version Not Supported
Content-Type: text/html
Content-Length: 379
Connection: close
Date: Tue, 02 Feb 2021 13:56:34 GMT
Server: ECSF (nyb/1D32)

<?xml version="1.0" encoding="iso-8859-1"?>
<!DOCTYPE html PUBLIC "-//W3C//DTD XHTML 1.0 Transitional//EN"
         "http://www.w3.org/TR/xhtml1/DTD/xhtml1-transitional.dtd">
<html xmlns="http://www.w3.org/1999/xhtml" xml:lang="en" lang="en">
        <head>
                <title>505 - HTTP Version Not Supported</title>
        </head>
        <body>
                <h1>505 - HTTP Version Not Supported</h1>
        </body>
</html>

16:56:33.626442 08:00:27:98:7c:ea (oui Unknown) > 52:54:00:12:35:02 (oui Unknown), ethertype IPv4 (0x0800), length 54: (tos 0x10, ttl 64, id 19815, offs
    dagon.rad.net.53218 > 93.184.216.34.http: Flags [.], cksum 0x4204 (incorrect -> 0xe4eb), ack 550, win 30195, length 0
E..(Mg@.@..o
...].."...P,.....2'P.u.B...
16:56:33.629090 52:54:00:12:35:02 (oui Unknown) > 08:00:27:98:7c:ea (oui Unknown), ethertype IPv4 (0x0800), length 60: (tos 0x0, ttl 64, id 250, offset
    93.184.216.34.http > dagon.rad.net.53218: Flags [F.], cksum 0x5ade (correct), seq 550, ack 8, win 65535, length 0
E..(....@.7.].."
....P....2',...P...Z.........
16:56:33.629142 08:00:27:98:7c:ea (oui Unknown) > 52:54:00:12:35:02 (oui Unknown), ethertype IPv4 (0x0800), length 54: (tos 0x10, ttl 64, id 19816, offs
    dagon.rad.net.53218 > 93.184.216.34.http: Flags [F.], cksum 0x4204 (incorrect -> 0xe4e9), seq 8, ack 551, win 30195, length 0
E..(Mh@.@..n
...].."...P,.....2(P.u.B...
16:56:33.629371 52:54:00:12:35:02 (oui Unknown) > 08:00:27:98:7c:ea (oui Unknown), ethertype IPv4 (0x0800), length 60: (tos 0x0, ttl 64, id 251, offset
    93.184.216.34.http > dagon.rad.net.53218: Flags [.], cksum 0x5add (correct), ack 9, win 65535, length 0
E..(....@.7.].."
....P....2(,...P...Z.........
